[
  {
    "data": "550b0003002700000035aa",
    "ts": "2021-06-18T04:08:07.018Z",
    "device": "JPM21F070022"
  },
  {
    "data": "550b0003002700000035aa",
    "ts": "2021-06-18T04:06:04.959Z",
    "device": "JPM21F070022"
  },
  {
    "data": "550b0003002700000035aa",
    "ts": "2021-06-18T04:04:03.102Z",
    "device": "JPM21F070022"
  },
  {
    "data": "550b0003002700000035aa",
    "ts": "2021-06-18T04:02:02.881Z",
    "device": "JPM21F070022"
  },
  {
    "data": "550b0003002700000035aa",
    "ts": "2021-06-18T03:59:59.410Z",
    "device": "JPM21F070022"
  },
  {
    "data": "550b0003002700000035aa",
    "ts": "2021-06-18T03:58:03.056Z",
    "device": "JPM21F070022"
  },
  {
    "data": "550b0003002700000035aa",
    "ts": "2021-06-18T03:55:54.962Z",
    "device": "JPM21F070022"
  },
  {
    "data": "550b0003002800000036aa",
    "ts": "2021-06-18T03:53:52.995Z",
    "device": "JPM21F070022"
  },
  {
    "data": "550b0003002800000036aa",
    "ts": "2021-06-18T03:51:51.491Z",
    "device": "JPM21F070022"
  },
  {
    "data": "550b0003002800000036aa",
    "ts": "2021-06-18T03:49:48.862Z",
    "device": "JPM21F070022"
  },
  {
    "data": "550b0003002800000036aa",
    "ts": "2021-06-18T03:47:47.002Z",
    "device": "JPM21F070022"
  },
  {
    "data": "550b0003002800000036aa",
    "ts": "2021-06-18T03:45:44.947Z",
    "device": "JPM21F070022"
  },
  {
    "data": "550b0003002800000036aa",
    "ts": "2021-06-18T03:43:43.239Z",
    "device": "JPM21F070022"
  },
  {
    "data": "550b0003002800000036aa",
    "ts": "2021-06-18T03:41:41.130Z",
    "device": "JPM21F070022"
  },
  {
    "data": "550b0003002800000036aa",
    "ts": "2021-06-18T03:39:39.062Z",
    "device": "JPM21F070022"
  },
  {
    "data": "550b0003002800000036aa",
    "ts": "2021-06-18T03:37:37.211Z",
    "device": "JPM21F070022"
  },
  {
    "data": "550b0003002800000036aa",
    "ts": "2021-06-18T03:35:37.122Z",
    "device": "JPM21F070022"
  },
  {
    "data": "550b0003002700000035aa",
    "ts": "2021-06-18T03:33:33.078Z",
    "device": "JPM21F070022"
  },
  {
    "data": "550b0003002800000036aa",
    "ts": "2021-06-18T03:31:30.917Z",
    "device": "JPM21F070022"
  },
  {
    "data": "550b0003002800000036aa",
    "ts": "2021-06-18T03:29:36.434Z",
    "device": "JPM21F070022"
  },
  {
    "data": "550b0003002800000036aa",
    "ts": "2021-06-18T03:27:26.018Z",
    "device": "JPM21F070022"
  },
  {
    "data": "550b0003002800000036aa",
    "ts": "2021-06-18T03:25:24.012Z",
    "device": "JPM21F070022"
  },
  {
    "data": "550b0003002800000036aa",
    "ts": "2021-06-18T03:23:21.743Z",
    "device": "JPM21F070022"
  },
  {
    "data": "550b0003002800000036aa",
    "ts": "2021-06-18T03:21:21.651Z",
    "device": "JPM21F070022"
  },
  {
    "data": "550b0003002800000036aa",
    "ts": "2021-06-18T03:19:17.922Z",
    "device": "JPM21F070022"
  },
  {
    "data": "550b0003002800000036aa",
    "ts": "2021-06-18T03:17:16.089Z",
    "device": "JPM21F070022"
  },
  {
    "data": "550b0003002800000036aa",
    "ts": "2021-06-18T03:15:14.079Z",
    "device": "JPM21F070022"
  },
  {
    "data": "550b0003002800000036aa",
    "ts": "2021-06-18T03:13:11.748Z",
    "device": "JPM21F070022"
  },
  {
    "data": "550b0003002800000036aa",
    "ts": "2021-06-18T03:11:09.980Z",
    "device": "JPM21F070022"
  },
  {
    "data": "550b0003002800000036aa",
    "ts": "2021-06-18T03:09:08.354Z",
    "device": "JPM21F070022"
  },
  {
    "data": "550b0003002800000036aa",
    "ts": "2021-06-18T03:07:05.956Z",
    "device": "JPM21F070022"
  },
  {
    "data": "550b0003002800000036aa",
    "ts": "2021-06-18T03:05:04.338Z",
    "device": "JPM21F070022"
  },
  {
    "data": "550b0003005200000060aa",
    "ts": "2021-06-18T03:03:01.952Z",
    "device": "JPM21F070022"
  },
  {
    "data": "550b0003002600000034aa",
    "ts": "2021-06-18T03:01:00.102Z",
    "device": "JPM21F070022"
  },
  {
    "data": "550b0003002600000034aa",
    "ts": "2021-06-18T02:58:58.148Z",
    "device": "JPM21F070022"
  },
  {
    "data": "550b0003002600000034aa",
    "ts": "2021-06-18T02:56:56.419Z",
    "device": "JPM21F070022"
  },
  {
    "data": "550b0003002600000034aa",
    "ts": "2021-06-18T02:54:54.006Z",
    "device": "JPM21F070022"
  },
  {
    "data": "550b0003002600000034aa",
    "ts": "2021-06-18T02:52:51.957Z",
    "device": "JPM21F070022"
  },
  {
    "data": "550b0003002600000034aa",
    "ts": "2021-06-18T02:50:49.977Z",
    "device": "JPM21F070022"
  },
  {
    "data": "550b0003002600000034aa",
    "ts": "2021-06-18T02:48:48.563Z",
    "device": "JPM21F070022"
  },
  {
    "data": "550b0003002700000035aa",
    "ts": "2021-06-18T02:46:45.949Z",
    "device": "JPM21F070022"
  },
  {
    "data": "550b0003002700000035aa",
    "ts": "2021-06-18T02:44:44.540Z",
    "device": "JPM21F070022"
  },
  {
    "data": "550b0003002700000035aa",
    "ts": "2021-06-18T02:42:42.050Z",
    "device": "JPM21F070022"
  },
  {
    "data": "550b0003002600000034aa",
    "ts": "2021-06-18T02:40:39.868Z",
    "device": "JPM21F070022"
  }
]